Tutorial1/sim/rgb2gray.vcd
$date
	Mon Jan 19 11:34:45 2026
$end
$version
	ModelSim Version 10.7a
$end
$timescale
	1ns
$end

$scope module e $end

$scope module UUT $end
$var wire 1 ! r [7] $end
$var wire 1 " r [6] $end
$var wire 1 # r [5] $end
$var wire 1 $ r [4] $end
$var wire 1 % r [3] $end
$var wire 1 & r [2] $end
$var wire 1 ' r [1] $end
$var wire 1 ( r [0] $end
$var wire 1 ) b [7] $end
$var wire 1 * b [6] $end
$var wire 1 + b [5] $end
$var wire 1 , b [4] $end
$var wire 1 - b [3] $end
$var wire 1 . b [2] $end
$var wire 1 / b [1] $end
$var wire 1 0 b [0] $end
$var wire 1 1 g [7] $end
$var wire 1 2 g [6] $end
$var wire 1 3 g [5] $end
$var wire 1 4 g [4] $end
$var wire 1 5 g [3] $end
$var wire 1 6 g [2] $end
$var wire 1 7 g [1] $end
$var wire 1 8 g [0] $end
$var wire 1 9 gray [7] $end
$var wire 1 : gray [6] $end
$var wire 1 ; gray [5] $end
$var wire 1 < gray [4] $end
$var wire 1 = gray [3] $end
$var wire 1 > gray [2] $end
$var wire 1 ? gray [1] $end
$var wire 1 @ gray [0] $end
$var wire 1 A r_int [7] $end
$var wire 1 B r_int [6] $end
$var wire 1 C r_int [5] $end
$var wire 1 D r_int [4] $end
$var wire 1 E r_int [3] $end
$var wire 1 F r_int [2] $end
$var wire 1 G r_int [1] $end
$var wire 1 H r_int [0] $end
$var wire 1 I g_int [7] $end
$var wire 1 J g_int [6] $end
$var wire 1 K g_int [5] $end
$var wire 1 L g_int [4] $end
$var wire 1 M g_int [3] $end
$var wire 1 N g_int [2] $end
$var wire 1 O g_int [1] $end
$var wire 1 P g_int [0] $end
$var wire 1 Q b_int [7] $end
$var wire 1 R b_int [6] $end
$var wire 1 S b_int [5] $end
$var wire 1 T b_int [4] $end
$var wire 1 U b_int [3] $end
$var wire 1 V b_int [2] $end
$var wire 1 W b_int [1] $end
$var wire 1 X b_int [0] $end
$var wire 1 Y gray_int [7] $end
$var wire 1 Z gray_int [6] $end
$var wire 1 [ gray_int [5] $end
$var wire 1 \ gray_int [4] $end
$var wire 1 ] gray_int [3] $end
$var wire 1 ^ gray_int [2] $end
$var wire 1 _ gray_int [1] $end
$var wire 1 ` gray_int [0] $end
$var wire 1 a max [7] $end
$var wire 1 b max [6] $end
$var wire 1 c max [5] $end
$var wire 1 d max [4] $end
$var wire 1 e max [3] $end
$var wire 1 f max [2] $end
$var wire 1 g max [1] $end
$var wire 1 h max [0] $end
$var wire 1 i min [7] $end
$var wire 1 j min [6] $end
$var wire 1 k min [5] $end
$var wire 1 l min [4] $end
$var wire 1 m min [3] $end
$var wire 1 n min [2] $end
$var wire 1 o min [1] $end
$var wire 1 p min [0] $end
$var wire 1 q sum [8] $end
$var wire 1 r sum [7] $end
$var wire 1 s sum [6] $end
$var wire 1 t sum [5] $end
$var wire 1 u sum [4] $end
$var wire 1 v sum [3] $end
$var wire 1 w sum [2] $end
$var wire 1 x sum [1] $end
$var wire 1 y sum [0] $end
$upscope $end
$upscope $end
$enddefinitions $end
#20
$dumpvars
0q
0r
0s
0t
0u
0v
0w
0x
0y
x!
x"
x#
x$
x%
x&
x'
x(
x)
x*
x+
x,
x-
x.
x/
x0
x1
x2
x3
x4
x5
x6
x7
x8
09
0:
0;
0<
0=
0>
0?
0@
0A
0B
0C
0D
0E
0F
0G
0H
0I
0J
0K
0L
0M
0N
0O
0P
0Q
0R
0S
0T
0U
0V
0W
0X
0Y
0Z
0[
0\
0]
0^
0_
0`
0a
0b
0c
0d
0e
0f
0g
0h
0i
0j
0k
0l
0m
0n
0o
0p
$end
#30
xX
xW
xV
xU
xT
xS
xR
xQ
xP
xO
xN
xM
xL
xK
xJ
xI
xH
xG
xF
xE
xD
xC
xB
xA
xp
xo
xn
xm
xl
xk
xj
xi
xh
xg
xf
xe
xd
xc
xb
xa
xy
xx
xw
xv
xu
xt
xs
xr
xq
x`
x_
x^
x]
x\
x[
xZ
xY
#45
10
0/
1.
0-
0,
0+
1*
0)
18
17
06
05
04
13
02
01
1(
0'
1&
0%
1$
0#
0"
0!
#50
x@
x?
x>
x=
x<
x;
x:
x9
1X
0W
1V
0U
0T
0S
1R
0Q
1P
1O
0N
0M
0L
1K
0J
0I
1H
0G
1F
0E
1D
0C
0B
0A
1p
0o
1n
0m
1l
0k
0j
0i
1h
0g
1f
0e
0d
0c
1b
0a
0y
1x
0w
1v
1u
0t
1s
0r
0q
1`
0_
1^
1]
0\
1[
0Z
0Y
#65
00
1/
0.
1,
1+
0*
08
14
03
0(
1"
#70
1@
0?
1>
1=
0<
1;
0:
09
0X
1W
0V
1T
1S
0R
0P
1L
0K
0H
1B
0p
1o
0n
0h
1d
1w
0v
0u
1t
1_
0^
0]
1\
#85
0,
#90
1?
0>
0=
1<
0T
#105
1,
0+
04
11
0&
0$
#110
1T
0S
0L
1I
0F
0D
1g
0f
0d
0b
1a
0x
1u
0t
0s
1r
0`
1]
0\
0[
1Z
#125
10
0/
0,
13
01
1(
1&
1$
#130
0@
1=
0<
0;
1:
1X
0W
0T
1K
0I
1H
1F
1D
1p
0o
0l
1h
0g
1f
1d
1b
0a
1x
1s
0r
1`
1[
0Z
#145
00
1/
1.
1,
1+
07
15
0(
1'
0&
0"
#150
1@
1;
0:
0X
1W
1V
1T
1S
0O
1M
0H
1G
0F
0B
0p
1o
1l
0h
1g
1c
0b
0x
0w
1v
0u
0`
0_
1^
0]
#170
0@
0?
1>
0=
